[
  {
    "Id": "EAFE9FFD-789E-4E21-AB75-E787707C561B",
    "Type": "Temperature",
    "Interval": 2
  },
  {
    "Id": "5EF193AB-F428-4D5A-9E0C-BF942531E931",
    "Type": "Pressure",
    "Interval": 1
  },
  {
    "Id": "0D59380A-A8FF-4CD8-8435-E8D4F4FF88A5",
    "Type": "MagneticField",
    "Interval": 3
  }
]